python/2.7.3(2):ERROR:150: Module 'python/2.7.3' conflicts with the currently loaded module(s) 'python/2.7.3-matplotlib'
python/2.7.3(2):ERROR:102: Tcl command execution failed: source /opt/Modules/extensions/extensions.tcl

