======================================================================================
			Resource Usage on 2015-06-19 15:35:17.870811:
	JobId: 1100820.r-man2  
	Project: xa5 
	Exit Status: 0 (Linux Signal 0)
	Service Units: 0.09
	NCPUs Requested: 1				NCPUs Used: 1
							CPU Time Used: 00:05:27
	Memory Requested: 16gb 				Memory Used: 5gb
							Vmem Used: 5gb
	Walltime requested: 00:10:00 			Walltime Used: 00:05:34
	jobfs request: 100mb				jobfs used: 1mb
======================================================================================
