python/2.7.3(2):ERROR:150: Module 'python/2.7.3' conflicts with the currently loaded module(s) 'python/2.7.3-matplotlib'
python/2.7.3(2):ERROR:102: Tcl command execution failed: source /opt/Modules/extensions/extensions.tcl

convert: Improper image header `/g/data/rr9/sjj576/visualisations/Terrestrial_Ecosystems/Climate/eMAST/eMAST_R_Package/0_01deg/v1m1/mon/land/alph/e_01/1970_2012/pngLarge/lessSize/lessColor/eMAST_R_Package_mon_alph_v1m1_197003.png' @ png.c/ReadPNGImage/2895.
