======================================================================================
			Resource Usage on 2015-06-22 18:41:54.396926:
	JobId: 1131689.r-man2  
	Project: xa5 
	Exit Status: 0 (Linux Signal 0)
	Service Units: 0.03
	NCPUs Requested: 1				NCPUs Used: 1
							CPU Time Used: 00:01:41
	Memory Requested: 16gb 				Memory Used: 1gb
							Vmem Used: 1gb
	Walltime requested: 00:10:00 			Walltime Used: 00:01:42
	jobfs request: 100mb				jobfs used: 1mb
======================================================================================
