Number of colors 13.0
Interval : 0.0769
Color Number : 1
Key:  rad
Color : #CBCBCC
Beggining : 0.0769
End : 0.1538
(0.796078431372549, 0.796078431372549, 0.8, 1.0)
First Tuples
(0, 0.796078431372549, 0.796078431372549)
Color Number : 2
Key:  rad
Color : #6565FE
Beggining : 0.1538
End : 0.2307
(0.396078431372549, 0.396078431372549, 0.996078431372549, 1.0)
(0.1538, 0.396078431372549, 0.396078431372549)
Color Number : 3
Key:  rad
Color : #33CBFE
Beggining : 0.2307
End : 0.3076
(0.2, 0.796078431372549, 0.996078431372549, 1.0)
(0.2307, 0.2, 0.2)
Color Number : 4
Key:  rad
Color : #9AFEFE
Beggining : 0.3076
End : 0.3845
(0.6039215686274509, 0.996078431372549, 0.996078431372549, 1.0)
(0.3076, 0.6039215686274509, 0.6039215686274509)
Color Number : 5
Key:  rad
Color : #00CB00
Beggining : 0.3845
End : 0.4614
(0.0, 0.796078431372549, 0.0, 1.0)
(0.38449999999999995, 0.0, 0.0)
Color Number : 6
Key:  rad
Color : #65FE65
Beggining : 0.4614
End : 0.5383
(0.396078431372549, 0.996078431372549, 0.396078431372549, 1.0)
(0.4614, 0.396078431372549, 0.396078431372549)
Color Number : 7
Key:  rad
Color : #CBFECB
Beggining : 0.5383
End : 0.6152
(0.796078431372549, 0.996078431372549, 0.796078431372549, 1.0)
(0.5383, 0.796078431372549, 0.796078431372549)
Color Number : 8
Key:  rad
Color : #FEFECB
Beggining : 0.6152
End : 0.6921
(0.996078431372549, 0.996078431372549, 0.796078431372549, 1.0)
(0.6152, 0.996078431372549, 0.996078431372549)
Color Number : 9
Key:  rad
Color : #FEFE33
Beggining : 0.6921
End : 0.769
(0.996078431372549, 0.996078431372549, 0.2, 1.0)
(0.6920999999999999, 0.996078431372549, 0.996078431372549)
Color Number : 10
Key:  rad
Color : #FECB65
Beggining : 0.769
End : 0.8459
(0.996078431372549, 0.796078431372549, 0.396078431372549, 1.0)
(0.7689999999999999, 0.996078431372549, 0.996078431372549)
Color Number : 11
Key:  rad
Color : #FECBCB
Beggining : 0.8459
End : 0.9228
(0.996078431372549, 0.796078431372549, 0.796078431372549, 1.0)
(0.8459, 0.996078431372549, 0.996078431372549)
Color Number : 12
Key:  rad
Color : #FE9999
Beggining : 0.9228
End : 0.9997
(0.996078431372549, 0.6, 0.6, 1.0)
(0.9228, 0.996078431372549, 0.996078431372549)
Color Number : 13
Key:  rad
Color : #FE3333
Beggining : 0.9997
End : 1.0766
(0.996078431372549, 0.2, 0.2, 1.0)
Final Color
(1, 0.996078431372549, 0.996078431372549)
Tuple red
((0, 0.796078431372549, 0.796078431372549), (0.1538, 0.396078431372549, 0.396078431372549), (0.2307, 0.2, 0.2), (0.3076, 0.6039215686274509, 0.6039215686274509), (0.38449999999999995, 0.0, 0.0), (0.4614, 0.396078431372549, 0.396078431372549), (0.5383, 0.796078431372549, 0.796078431372549), (0.6152, 0.996078431372549, 0.996078431372549), (0.6920999999999999, 0.996078431372549, 0.996078431372549), (0.7689999999999999, 0.996078431372549, 0.996078431372549), (0.8459, 0.996078431372549, 0.996078431372549), (0.9228, 0.996078431372549, 0.996078431372549), (1, 0.996078431372549, 0.996078431372549))
<type 'tuple'>
((0, 0.796078431372549, 0.796078431372549), (0.1538, 0.396078431372549, 0.396078431372549), (0.2307, 0.796078431372549, 0.796078431372549), (0.3076, 0.996078431372549, 0.996078431372549), (0.38449999999999995, 0.796078431372549, 0.796078431372549), (0.4614, 0.996078431372549, 0.996078431372549), (0.5383, 0.996078431372549, 0.996078431372549), (0.6152, 0.996078431372549, 0.996078431372549), (0.6920999999999999, 0.996078431372549, 0.996078431372549), (0.7689999999999999, 0.796078431372549, 0.796078431372549), (0.8459, 0.796078431372549, 0.796078431372549), (0.9228, 0.6, 0.6), (1, 0.2, 0.2))
((0, 0.8, 0.8), (0.1538, 0.996078431372549, 0.996078431372549), (0.2307, 0.996078431372549, 0.996078431372549), (0.3076, 0.996078431372549, 0.996078431372549), (0.38449999999999995, 0.0, 0.0), (0.4614, 0.396078431372549, 0.396078431372549), (0.5383, 0.796078431372549, 0.796078431372549), (0.6152, 0.796078431372549, 0.796078431372549), (0.6920999999999999, 0.2, 0.2), (0.7689999999999999, 0.396078431372549, 0.396078431372549), (0.8459, 0.796078431372549, 0.796078431372549), (0.9228, 0.6, 0.6), (1, 0.2, 0.2))
Number of colors 10.0
Interval : 0.1
Color Number : 1
Key:  brownToBlue
Color : #54472C
Beggining : 0.1
End : 0.2
(0.32941176470588235, 0.2784313725490196, 0.17254901960784313, 1.0)
First Tuples
(0, 0.32941176470588235, 0.32941176470588235)
Color Number : 2
Key:  brownToBlue
Color : #947C4B
Beggining : 0.2
End : 0.3
(0.5803921568627451, 0.48627450980392156, 0.29411764705882354, 1.0)
(0.2, 0.5803921568627451, 0.5803921568627451)
Color Number : 3
Key:  brownToBlue
Color : #BF9F60
Beggining : 0.3
End : 0.4
(0.7490196078431373, 0.6235294117647059, 0.3764705882352941, 1.0)
(0.30000000000000004, 0.7490196078431373, 0.7490196078431373)
Color Number : 4
Key:  brownToBlue
Color : #F7D186
Beggining : 0.4
End : 0.5
(0.9686274509803922, 0.8196078431372549, 0.5254901960784314, 1.0)
(0.4, 0.9686274509803922, 0.9686274509803922)
Color Number : 5
Key:  brownToBlue
Color : #86D7F7
Beggining : 0.5
End : 0.6
(0.5254901960784314, 0.8431372549019608, 0.9686274509803922, 1.0)
(0.5, 0.5254901960784314, 0.5254901960784314)
Color Number : 6
Key:  brownToBlue
Color : #86C2F7
Beggining : 0.6
End : 0.7
(0.5254901960784314, 0.7607843137254902, 0.9686274509803922, 1.0)
(0.6000000000000001, 0.5254901960784314, 0.5254901960784314)
Color Number : 7
Key:  brownToBlue
Color : #63B2F7
Beggining : 0.7
End : 0.8
(0.38823529411764707, 0.6980392156862745, 0.9686274509803922, 1.0)
(0.7000000000000001, 0.38823529411764707, 0.38823529411764707)
Color Number : 8
Key:  brownToBlue
Color : #3287D1
Beggining : 0.8
End : 0.9
(0.19607843137254902, 0.5294117647058824, 0.8196078431372549, 1.0)
(0.8, 0.19607843137254902, 0.19607843137254902)
Color Number : 9
Key:  brownToBlue
Color : #1E7ED4
Beggining : 0.9
End : 1.0
(0.11764705882352941, 0.49411764705882355, 0.8313725490196079, 1.0)
(0.9, 0.11764705882352941, 0.11764705882352941)
Color Number : 10
Key:  brownToBlue
Color : #0B6ABD
Beggining : 1.0
End : 1.1
(0.043137254901960784, 0.41568627450980394, 0.7411764705882353, 1.0)
Final Color
(1, 0.043137254901960784, 0.043137254901960784)
Tuple red
((0, 0.32941176470588235, 0.32941176470588235), (0.2, 0.5803921568627451, 0.5803921568627451), (0.30000000000000004, 0.7490196078431373, 0.7490196078431373), (0.4, 0.9686274509803922, 0.9686274509803922), (0.5, 0.5254901960784314, 0.5254901960784314), (0.6000000000000001, 0.5254901960784314, 0.5254901960784314), (0.7000000000000001, 0.38823529411764707, 0.38823529411764707), (0.8, 0.19607843137254902, 0.19607843137254902), (0.9, 0.11764705882352941, 0.11764705882352941), (1, 0.043137254901960784, 0.043137254901960784))
<type 'tuple'>
((0, 0.2784313725490196, 0.2784313725490196), (0.2, 0.48627450980392156, 0.48627450980392156), (0.30000000000000004, 0.6235294117647059, 0.6235294117647059), (0.4, 0.8196078431372549, 0.8196078431372549), (0.5, 0.8431372549019608, 0.8431372549019608), (0.6000000000000001, 0.7607843137254902, 0.7607843137254902), (0.7000000000000001, 0.6980392156862745, 0.6980392156862745), (0.8, 0.5294117647058824, 0.5294117647058824), (0.9, 0.49411764705882355, 0.49411764705882355), (1, 0.41568627450980394, 0.41568627450980394))
((0, 0.17254901960784313, 0.17254901960784313), (0.2, 0.29411764705882354, 0.29411764705882354), (0.30000000000000004, 0.3764705882352941, 0.3764705882352941), (0.4, 0.5254901960784314, 0.5254901960784314), (0.5, 0.9686274509803922, 0.9686274509803922), (0.6000000000000001, 0.9686274509803922, 0.9686274509803922), (0.7000000000000001, 0.9686274509803922, 0.9686274509803922), (0.8, 0.8196078431372549, 0.8196078431372549), (0.9, 0.8313725490196079, 0.8313725490196079), (1, 0.7411764705882353, 0.7411764705882353))
Number of colors 18.0
Interval : 0.0556
Color Number : 1
Key:  temp
Color : #990099
Beggining : 0.0556
End : 0.1112
(0.6, 0.0, 0.6, 1.0)
First Tuples
(0, 0.6, 0.6)
Color Number : 2
Key:  temp
Color : #FE00FE
Beggining : 0.1112
End : 0.1668
(0.996078431372549, 0.0, 0.996078431372549, 1.0)
(0.1112, 0.996078431372549, 0.996078431372549)
Color Number : 3
Key:  temp
Color : #FBAFFB
Beggining : 0.1668
End : 0.2224
(0.984313725490196, 0.6862745098039216, 0.984313725490196, 1.0)
(0.1668, 0.984313725490196, 0.984313725490196)
Color Number : 4
Key:  temp
Color : #CBCBCC
Beggining : 0.2224
End : 0.278
(0.796078431372549, 0.796078431372549, 0.8, 1.0)
(0.2224, 0.796078431372549, 0.796078431372549)
Color Number : 5
Key:  temp
Color : #6565FE
Beggining : 0.278
End : 0.3336
(0.396078431372549, 0.396078431372549, 0.996078431372549, 1.0)
(0.27799999999999997, 0.396078431372549, 0.396078431372549)
Color Number : 6
Key:  temp
Color : #33CBFE
Beggining : 0.3336
End : 0.3892
(0.2, 0.796078431372549, 0.996078431372549, 1.0)
(0.3336, 0.2, 0.2)
Color Number : 7
Key:  temp
Color : #9AFEFE
Beggining : 0.3892
End : 0.4448
(0.6039215686274509, 0.996078431372549, 0.996078431372549, 1.0)
(0.3892, 0.6039215686274509, 0.6039215686274509)
Color Number : 8
Key:  temp
Color : #00CB00
Beggining : 0.4448
End : 0.5004
(0.0, 0.796078431372549, 0.0, 1.0)
(0.4448, 0.0, 0.0)
Color Number : 9
Key:  temp
Color : #65FE65
Beggining : 0.5004
End : 0.556
(0.396078431372549, 0.996078431372549, 0.396078431372549, 1.0)
(0.5004, 0.396078431372549, 0.396078431372549)
Color Number : 10
Key:  temp
Color : #FEFECB
Beggining : 0.556
End : 0.6116
(0.996078431372549, 0.996078431372549, 0.796078431372549, 1.0)
(0.5559999999999999, 0.996078431372549, 0.996078431372549)
Color Number : 11
Key:  temp
Color : #FEFE33
Beggining : 0.6116
End : 0.6672
(0.996078431372549, 0.996078431372549, 0.2, 1.0)
(0.6115999999999999, 0.996078431372549, 0.996078431372549)
Color Number : 12
Key:  temp
Color : #FECB65
Beggining : 0.6672
End : 0.7228
(0.996078431372549, 0.796078431372549, 0.396078431372549, 1.0)
(0.6672, 0.996078431372549, 0.996078431372549)
Color Number : 13
Key:  temp
Color : #FECBCB
Beggining : 0.7228
End : 0.7784
(0.996078431372549, 0.796078431372549, 0.796078431372549, 1.0)
(0.7228, 0.996078431372549, 0.996078431372549)
Color Number : 14
Key:  temp
Color : #FE9999
Beggining : 0.7784
End : 0.834
(0.996078431372549, 0.6, 0.6, 1.0)
(0.7784, 0.996078431372549, 0.996078431372549)
Color Number : 15
Key:  temp
Color : #FE3333
Beggining : 0.834
End : 0.8896
(0.996078431372549, 0.2, 0.2, 1.0)
(0.834, 0.996078431372549, 0.996078431372549)
Color Number : 16
Key:  temp
Color : #CB0000
Beggining : 0.8896
End : 0.9452
(0.796078431372549, 0.0, 0.0, 1.0)
(0.8896, 0.796078431372549, 0.796078431372549)
Color Number : 17
Key:  temp
Color : #986532
Beggining : 0.9452
End : 1.0008
(0.596078431372549, 0.396078431372549, 0.19607843137254902, 1.0)
(0.9451999999999999, 0.596078431372549, 0.596078431372549)
Color Number : 18
Key:  temp
Color : #993300
Beggining : 1.0008
End : 1.0564
(0.6, 0.2, 0.0, 1.0)
Final Color
(1, 0.6, 0.6)
Tuple red
((0, 0.6, 0.6), (0.1112, 0.996078431372549, 0.996078431372549), (0.1668, 0.984313725490196, 0.984313725490196), (0.2224, 0.796078431372549, 0.796078431372549), (0.27799999999999997, 0.396078431372549, 0.396078431372549), (0.3336, 0.2, 0.2), (0.3892, 0.6039215686274509, 0.6039215686274509), (0.4448, 0.0, 0.0), (0.5004, 0.396078431372549, 0.396078431372549), (0.5559999999999999, 0.996078431372549, 0.996078431372549), (0.6115999999999999, 0.996078431372549, 0.996078431372549), (0.6672, 0.996078431372549, 0.996078431372549), (0.7228, 0.996078431372549, 0.996078431372549), (0.7784, 0.996078431372549, 0.996078431372549), (0.834, 0.996078431372549, 0.996078431372549), (0.8896, 0.796078431372549, 0.796078431372549), (0.9451999999999999, 0.596078431372549, 0.596078431372549), (1, 0.6, 0.6))
<type 'tuple'>
((0, 0.0, 0.0), (0.1112, 0.0, 0.0), (0.1668, 0.6862745098039216, 0.6862745098039216), (0.2224, 0.796078431372549, 0.796078431372549), (0.27799999999999997, 0.396078431372549, 0.396078431372549), (0.3336, 0.796078431372549, 0.796078431372549), (0.3892, 0.996078431372549, 0.996078431372549), (0.4448, 0.796078431372549, 0.796078431372549), (0.5004, 0.996078431372549, 0.996078431372549), (0.5559999999999999, 0.996078431372549, 0.996078431372549), (0.6115999999999999, 0.996078431372549, 0.996078431372549), (0.6672, 0.796078431372549, 0.796078431372549), (0.7228, 0.796078431372549, 0.796078431372549), (0.7784, 0.6, 0.6), (0.834, 0.2, 0.2), (0.8896, 0.0, 0.0), (0.9451999999999999, 0.396078431372549, 0.396078431372549), (1, 0.2, 0.2))
((0, 0.6, 0.6), (0.1112, 0.996078431372549, 0.996078431372549), (0.1668, 0.984313725490196, 0.984313725490196), (0.2224, 0.8, 0.8), (0.27799999999999997, 0.996078431372549, 0.996078431372549), (0.3336, 0.996078431372549, 0.996078431372549), (0.3892, 0.996078431372549, 0.996078431372549), (0.4448, 0.0, 0.0), (0.5004, 0.396078431372549, 0.396078431372549), (0.5559999999999999, 0.796078431372549, 0.796078431372549), (0.6115999999999999, 0.2, 0.2), (0.6672, 0.396078431372549, 0.396078431372549), (0.7228, 0.796078431372549, 0.796078431372549), (0.7784, 0.6, 0.6), (0.834, 0.2, 0.2), (0.8896, 0.0, 0.0), (0.9451999999999999, 0.19607843137254902, 0.19607843137254902), (1, 0.0, 0.0))
Number of colors 11.0
Interval : 0.0909
Color Number : 1
Key:  gppr
Color : #006837
Beggining : 0.0909
End : 0.1818
(0.0, 0.40784313725490196, 0.21568627450980393, 1.0)
First Tuples
(0, 0.0, 0.0)
Color Number : 2
Key:  gppr
Color : #00441B
Beggining : 0.1818
End : 0.2727
(0.0, 0.26666666666666666, 0.10588235294117647, 1.0)
(0.1818, 0.0, 0.0)
Color Number : 3
Key:  gppr
Color : #006D2C
Beggining : 0.2727
End : 0.3636
(0.0, 0.42745098039215684, 0.17254901960784313, 1.0)
(0.2727, 0.0, 0.0)
Color Number : 4
Key:  gppr
Color : #238B45
Beggining : 0.3636
End : 0.4545
(0.13725490196078433, 0.5450980392156862, 0.27058823529411763, 1.0)
(0.3636, 0.13725490196078433, 0.13725490196078433)
Color Number : 5
Key:  gppr
Color : #41AB5D
Beggining : 0.4545
End : 0.5454
(0.2549019607843137, 0.6705882352941176, 0.36470588235294116, 1.0)
(0.45449999999999996, 0.2549019607843137, 0.2549019607843137)
Color Number : 6
Key:  gppr
Color : #ADDD8E
Beggining : 0.5454
End : 0.6363
(0.6784313725490196, 0.8666666666666667, 0.5568627450980392, 1.0)
(0.5454, 0.6784313725490196, 0.6784313725490196)
Color Number : 7
Key:  gppr
Color : #D9F0A3
Beggining : 0.6363
End : 0.7272
(0.8509803921568627, 0.9411764705882353, 0.6392156862745098, 1.0)
(0.6363, 0.8509803921568627, 0.8509803921568627)
Color Number : 8
Key:  gppr
Color : #F7FCB9
Beggining : 0.7272
End : 0.8181
(0.9686274509803922, 0.9882352941176471, 0.7254901960784313, 1.0)
(0.7272, 0.9686274509803922, 0.9686274509803922)
Color Number : 9
Key:  gppr
Color : #FFFFE5
Beggining : 0.8181
End : 0.909
(1.0, 1.0, 0.8980392156862745, 1.0)
(0.8180999999999999, 1.0, 1.0)
Color Number : 10
Key:  gppr
Color : #FEE391
Beggining : 0.909
End : 0.9999
(0.996078431372549, 0.8901960784313725, 0.5686274509803921, 1.0)
(0.9089999999999999, 0.996078431372549, 0.996078431372549)
Color Number : 11
Key:  gppr
Color : #FFF7BC
Beggining : 0.9999
End : 1.0908
(1.0, 0.9686274509803922, 0.7372549019607844, 1.0)
Final Color
(1, 1.0, 1.0)
Tuple red
((0, 0.0, 0.0), (0.1818, 0.0, 0.0), (0.2727, 0.0, 0.0), (0.3636, 0.13725490196078433, 0.13725490196078433), (0.45449999999999996, 0.2549019607843137, 0.2549019607843137), (0.5454, 0.6784313725490196, 0.6784313725490196), (0.6363, 0.8509803921568627, 0.8509803921568627), (0.7272, 0.9686274509803922, 0.9686274509803922), (0.8180999999999999, 1.0, 1.0), (0.9089999999999999, 0.996078431372549, 0.996078431372549), (1, 1.0, 1.0))
<type 'tuple'>
((0, 0.40784313725490196, 0.40784313725490196), (0.1818, 0.26666666666666666, 0.26666666666666666), (0.2727, 0.42745098039215684, 0.42745098039215684), (0.3636, 0.5450980392156862, 0.5450980392156862), (0.45449999999999996, 0.6705882352941176, 0.6705882352941176), (0.5454, 0.8666666666666667, 0.8666666666666667), (0.6363, 0.9411764705882353, 0.9411764705882353), (0.7272, 0.9882352941176471, 0.9882352941176471), (0.8180999999999999, 1.0, 1.0), (0.9089999999999999, 0.8901960784313725, 0.8901960784313725), (1, 0.9686274509803922, 0.9686274509803922))
((0, 0.21568627450980393, 0.21568627450980393), (0.1818, 0.10588235294117647, 0.10588235294117647), (0.2727, 0.17254901960784313, 0.17254901960784313), (0.3636, 0.27058823529411763, 0.27058823529411763), (0.45449999999999996, 0.36470588235294116, 0.36470588235294116), (0.5454, 0.5568627450980392, 0.5568627450980392), (0.6363, 0.6392156862745098, 0.6392156862745098), (0.7272, 0.7254901960784313, 0.7254901960784313), (0.8180999999999999, 0.8980392156862745, 0.8980392156862745), (0.9089999999999999, 0.5686274509803921, 0.5686274509803921), (1, 0.7372549019607844, 0.7372549019607844))
Number of colors 10.0
Interval : 0.1
Color Number : 1
Key:  brownToGreenToBlue
Color : #D8A654
Beggining : 0.1
End : 0.2
(0.8470588235294118, 0.6509803921568628, 0.32941176470588235, 1.0)
First Tuples
(0, 0.8470588235294118, 0.8470588235294118)
Color Number : 2
Key:  brownToGreenToBlue
Color : #CBC357
Beggining : 0.2
End : 0.3
(0.796078431372549, 0.7647058823529411, 0.3411764705882353, 1.0)
(0.2, 0.796078431372549, 0.796078431372549)
Color Number : 3
Key:  brownToGreenToBlue
Color : #A4BE58
Beggining : 0.3
End : 0.4
(0.6431372549019608, 0.7450980392156863, 0.34509803921568627, 1.0)
(0.30000000000000004, 0.6431372549019608, 0.6431372549019608)
Color Number : 4
Key:  brownToGreenToBlue
Color : #7FB159
Beggining : 0.4
End : 0.5
(0.4980392156862745, 0.6941176470588235, 0.34901960784313724, 1.0)
(0.4, 0.4980392156862745, 0.4980392156862745)
Color Number : 5
Key:  brownToGreenToBlue
Color : #61A558
Beggining : 0.5
End : 0.6
(0.3803921568627451, 0.6470588235294118, 0.34509803921568627, 1.0)
(0.5, 0.3803921568627451, 0.3803921568627451)
Color Number : 6
Key:  brownToGreenToBlue
Color : #579864
Beggining : 0.6
End : 0.7
(0.3411764705882353, 0.596078431372549, 0.39215686274509803, 1.0)
(0.6000000000000001, 0.3411764705882353, 0.3411764705882353)
Color Number : 7
Key:  brownToGreenToBlue
Color : #548B71
Beggining : 0.7
End : 0.8
(0.32941176470588235, 0.5450980392156862, 0.44313725490196076, 1.0)
(0.7000000000000001, 0.32941176470588235, 0.32941176470588235)
Color Number : 8
Key:  brownToGreenToBlue
Color : #517F77
Beggining : 0.8
End : 0.9
(0.3176470588235294, 0.4980392156862745, 0.4666666666666667, 1.0)
(0.8, 0.3176470588235294, 0.3176470588235294)
Color Number : 9
Key:  brownToGreenToBlue
Color : #4D6C72
Beggining : 0.9
End : 1.0
(0.30196078431372547, 0.4235294117647059, 0.4470588235294118, 1.0)
(0.9, 0.30196078431372547, 0.30196078431372547)
Color Number : 10
Key:  brownToGreenToBlue
Color : #485865
Beggining : 1.0
End : 1.1
(0.2823529411764706, 0.34509803921568627, 0.396078431372549, 1.0)
Final Color
(1, 0.2823529411764706, 0.2823529411764706)
Tuple red
((0, 0.8470588235294118, 0.8470588235294118), (0.2, 0.796078431372549, 0.796078431372549), (0.30000000000000004, 0.6431372549019608, 0.6431372549019608), (0.4, 0.4980392156862745, 0.4980392156862745), (0.5, 0.3803921568627451, 0.3803921568627451), (0.6000000000000001, 0.3411764705882353, 0.3411764705882353), (0.7000000000000001, 0.32941176470588235, 0.32941176470588235), (0.8, 0.3176470588235294, 0.3176470588235294), (0.9, 0.30196078431372547, 0.30196078431372547), (1, 0.2823529411764706, 0.2823529411764706))
<type 'tuple'>
((0, 0.6509803921568628, 0.6509803921568628), (0.2, 0.7647058823529411, 0.7647058823529411), (0.30000000000000004, 0.7450980392156863, 0.7450980392156863), (0.4, 0.6941176470588235, 0.6941176470588235), (0.5, 0.6470588235294118, 0.6470588235294118), (0.6000000000000001, 0.596078431372549, 0.596078431372549), (0.7000000000000001, 0.5450980392156862, 0.5450980392156862), (0.8, 0.4980392156862745, 0.4980392156862745), (0.9, 0.4235294117647059, 0.4235294117647059), (1, 0.34509803921568627, 0.34509803921568627))
((0, 0.32941176470588235, 0.32941176470588235), (0.2, 0.3411764705882353, 0.3411764705882353), (0.30000000000000004, 0.34509803921568627, 0.34509803921568627), (0.4, 0.34901960784313724, 0.34901960784313724), (0.5, 0.34509803921568627, 0.34509803921568627), (0.6000000000000001, 0.39215686274509803, 0.39215686274509803), (0.7000000000000001, 0.44313725490196076, 0.44313725490196076), (0.8, 0.4666666666666667, 0.4666666666666667), (0.9, 0.4470588235294118, 0.4470588235294118), (1, 0.396078431372549, 0.396078431372549))
Number of colors 12.0
Interval : 0.0833
Color Number : 1
Key:  prec
Color : #FEFEFE
Beggining : 0.0833
End : 0.1666
(0.996078431372549, 0.996078431372549, 0.996078431372549, 1.0)
First Tuples
(0, 0.996078431372549, 0.996078431372549)
Color Number : 2
Key:  prec
Color : #FEBE58
Beggining : 0.1666
End : 0.2499
(0.996078431372549, 0.7450980392156863, 0.34509803921568627, 1.0)
(0.1666, 0.996078431372549, 0.996078431372549)
Color Number : 3
Key:  prec
Color : #FEAC00
Beggining : 0.2499
End : 0.3332
(0.996078431372549, 0.6745098039215687, 0.0, 1.0)
(0.2499, 0.996078431372549, 0.996078431372549)
Color Number : 4
Key:  prec
Color : #FEFE00
Beggining : 0.3332
End : 0.4165
(0.996078431372549, 0.996078431372549, 0.0, 1.0)
(0.3332, 0.996078431372549, 0.996078431372549)
Color Number : 5
Key:  prec
Color : #B2FE00
Beggining : 0.4165
End : 0.4998
(0.6980392156862745, 0.996078431372549, 0.0, 1.0)
(0.4165, 0.6980392156862745, 0.6980392156862745)
Color Number : 6
Key:  prec
Color : #4CFE00
Beggining : 0.4998
End : 0.5831
(0.2980392156862745, 0.996078431372549, 0.0, 1.0)
(0.4998, 0.2980392156862745, 0.2980392156862745)
Color Number : 7
Key:  prec
Color : #00E499
Beggining : 0.5831
End : 0.6664
(0.0, 0.8941176470588236, 0.6, 1.0)
(0.5831, 0.0, 0.0)
Color Number : 8
Key:  prec
Color : #00A4FE
Beggining : 0.6664
End : 0.7497
(0.0, 0.6431372549019608, 0.996078431372549, 1.0)
(0.6664, 0.0, 0.0)
Color Number : 9
Key:  prec
Color : #3E3EFE
Beggining : 0.7497
End : 0.833
(0.24313725490196078, 0.24313725490196078, 0.996078431372549, 1.0)
(0.7497, 0.24313725490196078, 0.24313725490196078)
Color Number : 10
Key:  prec
Color : #B200FE
Beggining : 0.833
End : 0.9163
(0.6980392156862745, 0.0, 0.996078431372549, 1.0)
(0.833, 0.6980392156862745, 0.6980392156862745)
Color Number : 11
Key:  prec
Color : #FE00FE
Beggining : 0.9163
End : 0.9996
(0.996078431372549, 0.0, 0.996078431372549, 1.0)
(0.9163, 0.996078431372549, 0.996078431372549)
Color Number : 12
Key:  prec
Color : #FE4C9B
Beggining : 0.9996
End : 1.0829
(0.996078431372549, 0.2980392156862745, 0.6078431372549019, 1.0)
Final Color
(1, 0.996078431372549, 0.996078431372549)
Tuple red
((0, 0.996078431372549, 0.996078431372549), (0.1666, 0.996078431372549, 0.996078431372549), (0.2499, 0.996078431372549, 0.996078431372549), (0.3332, 0.996078431372549, 0.996078431372549), (0.4165, 0.6980392156862745, 0.6980392156862745), (0.4998, 0.2980392156862745, 0.2980392156862745), (0.5831, 0.0, 0.0), (0.6664, 0.0, 0.0), (0.7497, 0.24313725490196078, 0.24313725490196078), (0.833, 0.6980392156862745, 0.6980392156862745), (0.9163, 0.996078431372549, 0.996078431372549), (1, 0.996078431372549, 0.996078431372549))
<type 'tuple'>
((0, 0.996078431372549, 0.996078431372549), (0.1666, 0.7450980392156863, 0.7450980392156863), (0.2499, 0.6745098039215687, 0.6745098039215687), (0.3332, 0.996078431372549, 0.996078431372549), (0.4165, 0.996078431372549, 0.996078431372549), (0.4998, 0.996078431372549, 0.996078431372549), (0.5831, 0.8941176470588236, 0.8941176470588236), (0.6664, 0.6431372549019608, 0.6431372549019608), (0.7497, 0.24313725490196078, 0.24313725490196078), (0.833, 0.0, 0.0), (0.9163, 0.0, 0.0), (1, 0.2980392156862745, 0.2980392156862745))
((0, 0.996078431372549, 0.996078431372549), (0.1666, 0.34509803921568627, 0.34509803921568627), (0.2499, 0.0, 0.0), (0.3332, 0.0, 0.0), (0.4165, 0.0, 0.0), (0.4998, 0.0, 0.0), (0.5831, 0.6, 0.6), (0.6664, 0.996078431372549, 0.996078431372549), (0.7497, 0.996078431372549, 0.996078431372549), (0.833, 0.996078431372549, 0.996078431372549), (0.9163, 0.996078431372549, 0.996078431372549), (1, 0.6078431372549019, 0.6078431372549019))
Number of colors 18.0
Interval : 0.0556
Color Number : 1
Key:  tempr
Color : #993300
Beggining : 0.0556
End : 0.1112
(0.6, 0.2, 0.0, 1.0)
First Tuples
(0, 0.6, 0.6)
Color Number : 2
Key:  tempr
Color : #986532
Beggining : 0.1112
End : 0.1668
(0.596078431372549, 0.396078431372549, 0.19607843137254902, 1.0)
(0.1112, 0.596078431372549, 0.596078431372549)
Color Number : 3
Key:  tempr
Color : #CB0000
Beggining : 0.1668
End : 0.2224
(0.796078431372549, 0.0, 0.0, 1.0)
(0.1668, 0.796078431372549, 0.796078431372549)
Color Number : 4
Key:  tempr
Color : #FE3333
Beggining : 0.2224
End : 0.278
(0.996078431372549, 0.2, 0.2, 1.0)
(0.2224, 0.996078431372549, 0.996078431372549)
Color Number : 5
Key:  tempr
Color : #FE9999
Beggining : 0.278
End : 0.3336
(0.996078431372549, 0.6, 0.6, 1.0)
(0.27799999999999997, 0.996078431372549, 0.996078431372549)
Color Number : 6
Key:  tempr
Color : #FECBCB
Beggining : 0.3336
End : 0.3892
(0.996078431372549, 0.796078431372549, 0.796078431372549, 1.0)
(0.3336, 0.996078431372549, 0.996078431372549)
Color Number : 7
Key:  tempr
Color : #FECB65
Beggining : 0.3892
End : 0.4448
(0.996078431372549, 0.796078431372549, 0.396078431372549, 1.0)
(0.3892, 0.996078431372549, 0.996078431372549)
Color Number : 8
Key:  tempr
Color : #FEFE33
Beggining : 0.4448
End : 0.5004
(0.996078431372549, 0.996078431372549, 0.2, 1.0)
(0.4448, 0.996078431372549, 0.996078431372549)
Color Number : 9
Key:  tempr
Color : #FEFECB
Beggining : 0.5004
End : 0.556
(0.996078431372549, 0.996078431372549, 0.796078431372549, 1.0)
(0.5004, 0.996078431372549, 0.996078431372549)
Color Number : 10
Key:  tempr
Color : #65FE65
Beggining : 0.556
End : 0.6116
(0.396078431372549, 0.996078431372549, 0.396078431372549, 1.0)
(0.5559999999999999, 0.396078431372549, 0.396078431372549)
Color Number : 11
Key:  tempr
Color : #00CB00
Beggining : 0.6116
End : 0.6672
(0.0, 0.796078431372549, 0.0, 1.0)
(0.6115999999999999, 0.0, 0.0)
Color Number : 12
Key:  tempr
Color : #9AFEFE
Beggining : 0.6672
End : 0.7228
(0.6039215686274509, 0.996078431372549, 0.996078431372549, 1.0)
(0.6672, 0.6039215686274509, 0.6039215686274509)
Color Number : 13
Key:  tempr
Color : #33CBFE
Beggining : 0.7228
End : 0.7784
(0.2, 0.796078431372549, 0.996078431372549, 1.0)
(0.7228, 0.2, 0.2)
Color Number : 14
Key:  tempr
Color : #6565FE
Beggining : 0.7784
End : 0.834
(0.396078431372549, 0.396078431372549, 0.996078431372549, 1.0)
(0.7784, 0.396078431372549, 0.396078431372549)
Color Number : 15
Key:  tempr
Color : #CBCBCC
Beggining : 0.834
End : 0.8896
(0.796078431372549, 0.796078431372549, 0.8, 1.0)
(0.834, 0.796078431372549, 0.796078431372549)
Color Number : 16
Key:  tempr
Color : #FBAFFB
Beggining : 0.8896
End : 0.9452
(0.984313725490196, 0.6862745098039216, 0.984313725490196, 1.0)
(0.8896, 0.984313725490196, 0.984313725490196)
Color Number : 17
Key:  tempr
Color : #FE00FE
Beggining : 0.9452
End : 1.0008
(0.996078431372549, 0.0, 0.996078431372549, 1.0)
(0.9451999999999999, 0.996078431372549, 0.996078431372549)
Color Number : 18
Key:  tempr
Color : #990099
Beggining : 1.0008
End : 1.0564
(0.6, 0.0, 0.6, 1.0)
Final Color
(1, 0.6, 0.6)
Tuple red
((0, 0.6, 0.6), (0.1112, 0.596078431372549, 0.596078431372549), (0.1668, 0.796078431372549, 0.796078431372549), (0.2224, 0.996078431372549, 0.996078431372549), (0.27799999999999997, 0.996078431372549, 0.996078431372549), (0.3336, 0.996078431372549, 0.996078431372549), (0.3892, 0.996078431372549, 0.996078431372549), (0.4448, 0.996078431372549, 0.996078431372549), (0.5004, 0.996078431372549, 0.996078431372549), (0.5559999999999999, 0.396078431372549, 0.396078431372549), (0.6115999999999999, 0.0, 0.0), (0.6672, 0.6039215686274509, 0.6039215686274509), (0.7228, 0.2, 0.2), (0.7784, 0.396078431372549, 0.396078431372549), (0.834, 0.796078431372549, 0.796078431372549), (0.8896, 0.984313725490196, 0.984313725490196), (0.9451999999999999, 0.996078431372549, 0.996078431372549), (1, 0.6, 0.6))
<type 'tuple'>
((0, 0.2, 0.2), (0.1112, 0.396078431372549, 0.396078431372549), (0.1668, 0.0, 0.0), (0.2224, 0.2, 0.2), (0.27799999999999997, 0.6, 0.6), (0.3336, 0.796078431372549, 0.796078431372549), (0.3892, 0.796078431372549, 0.796078431372549), (0.4448, 0.996078431372549, 0.996078431372549), (0.5004, 0.996078431372549, 0.996078431372549), (0.5559999999999999, 0.996078431372549, 0.996078431372549), (0.6115999999999999, 0.796078431372549, 0.796078431372549), (0.6672, 0.996078431372549, 0.996078431372549), (0.7228, 0.796078431372549, 0.796078431372549), (0.7784, 0.396078431372549, 0.396078431372549), (0.834, 0.796078431372549, 0.796078431372549), (0.8896, 0.6862745098039216, 0.6862745098039216), (0.9451999999999999, 0.0, 0.0), (1, 0.0, 0.0))
((0, 0.0, 0.0), (0.1112, 0.19607843137254902, 0.19607843137254902), (0.1668, 0.0, 0.0), (0.2224, 0.2, 0.2), (0.27799999999999997, 0.6, 0.6), (0.3336, 0.796078431372549, 0.796078431372549), (0.3892, 0.396078431372549, 0.396078431372549), (0.4448, 0.2, 0.2), (0.5004, 0.796078431372549, 0.796078431372549), (0.5559999999999999, 0.396078431372549, 0.396078431372549), (0.6115999999999999, 0.0, 0.0), (0.6672, 0.996078431372549, 0.996078431372549), (0.7228, 0.996078431372549, 0.996078431372549), (0.7784, 0.996078431372549, 0.996078431372549), (0.834, 0.8, 0.8), (0.8896, 0.984313725490196, 0.984313725490196), (0.9451999999999999, 0.996078431372549, 0.996078431372549), (1, 0.6, 0.6))
Number of colors 10.0
Interval : 0.1
Color Number : 1
Key:  brownToBlue2
Color : #544E42
Beggining : 0.1
End : 0.2
(0.32941176470588235, 0.3058823529411765, 0.25882352941176473, 1.0)
First Tuples
(0, 0.32941176470588235, 0.32941176470588235)
Color Number : 2
Key:  brownToBlue2
Color : #857350
Beggining : 0.2
End : 0.3
(0.5215686274509804, 0.45098039215686275, 0.3137254901960784, 1.0)
(0.2, 0.5215686274509804, 0.5215686274509804)
Color Number : 3
Key:  brownToBlue2
Color : #B59145
Beggining : 0.3
End : 0.4
(0.7098039215686275, 0.5686274509803921, 0.27058823529411763, 1.0)
(0.30000000000000004, 0.7098039215686275, 0.7098039215686275)
Color Number : 4
Key:  brownToBlue2
Color : #C4A562
Beggining : 0.4
End : 0.5
(0.7686274509803922, 0.6470588235294118, 0.3843137254901961, 1.0)
(0.4, 0.7686274509803922, 0.7686274509803922)
Color Number : 5
Key:  brownToBlue2
Color : #EDCE8C
Beggining : 0.5
End : 0.6
(0.9294117647058824, 0.807843137254902, 0.5490196078431373, 1.0)
(0.5, 0.9294117647058824, 0.9294117647058824)
Color Number : 6
Key:  brownToBlue2
Color : #63EDF7
Beggining : 0.6
End : 0.7
(0.38823529411764707, 0.9294117647058824, 0.9686274509803922, 1.0)
(0.6000000000000001, 0.38823529411764707, 0.38823529411764707)
Color Number : 7
Key:  brownToBlue2
Color : #51C1C9
Beggining : 0.7
End : 0.8
(0.3176470588235294, 0.7568627450980392, 0.788235294117647, 1.0)
(0.7000000000000001, 0.3176470588235294, 0.3176470588235294)
Color Number : 8
Key:  brownToBlue2
Color : #439AA1
Beggining : 0.8
End : 0.9
(0.2627450980392157, 0.6039215686274509, 0.6313725490196078, 1.0)
(0.8, 0.2627450980392157, 0.2627450980392157)
Color Number : 9
Key:  brownToBlue2
Color : #22777D
Beggining : 0.9
End : 1.0
(0.13333333333333333, 0.4666666666666667, 0.49019607843137253, 1.0)
(0.9, 0.13333333333333333, 0.13333333333333333)
Color Number : 10
Key:  brownToBlue2
Color : #064A4F
Beggining : 1.0
End : 1.1
(0.023529411764705882, 0.2901960784313726, 0.30980392156862746, 1.0)
Final Color
(1, 0.023529411764705882, 0.023529411764705882)
Tuple red
((0, 0.32941176470588235, 0.32941176470588235), (0.2, 0.5215686274509804, 0.5215686274509804), (0.30000000000000004, 0.7098039215686275, 0.7098039215686275), (0.4, 0.7686274509803922, 0.7686274509803922), (0.5, 0.9294117647058824, 0.9294117647058824), (0.6000000000000001, 0.38823529411764707, 0.38823529411764707), (0.7000000000000001, 0.3176470588235294, 0.3176470588235294), (0.8, 0.2627450980392157, 0.2627450980392157), (0.9, 0.13333333333333333, 0.13333333333333333), (1, 0.023529411764705882, 0.023529411764705882))
<type 'tuple'>
((0, 0.3058823529411765, 0.3058823529411765), (0.2, 0.45098039215686275, 0.45098039215686275), (0.30000000000000004, 0.5686274509803921, 0.5686274509803921), (0.4, 0.6470588235294118, 0.6470588235294118), (0.5, 0.807843137254902, 0.807843137254902), (0.6000000000000001, 0.9294117647058824, 0.9294117647058824), (0.7000000000000001, 0.7568627450980392, 0.7568627450980392), (0.8, 0.6039215686274509, 0.6039215686274509), (0.9, 0.4666666666666667, 0.4666666666666667), (1, 0.2901960784313726, 0.2901960784313726))
((0, 0.25882352941176473, 0.25882352941176473), (0.2, 0.3137254901960784, 0.3137254901960784), (0.30000000000000004, 0.27058823529411763, 0.27058823529411763), (0.4, 0.3843137254901961, 0.3843137254901961), (0.5, 0.5490196078431373, 0.5490196078431373), (0.6000000000000001, 0.9686274509803922, 0.9686274509803922), (0.7000000000000001, 0.788235294117647, 0.788235294117647), (0.8, 0.6313725490196078, 0.6313725490196078), (0.9, 0.49019607843137253, 0.49019607843137253), (1, 0.30980392156862746, 0.30980392156862746))
Number of colors 8.0
Interval : 0.125
Color Number : 1
Key:  gppb
Color : #FFFFE5
Beggining : 0.125
End : 0.25
(1.0, 1.0, 0.8980392156862745, 1.0)
First Tuples
(0, 1.0, 1.0)
Color Number : 2
Key:  gppb
Color : #FEE391
Beggining : 0.25
End : 0.375
(0.996078431372549, 0.8901960784313725, 0.5686274509803921, 1.0)
(0.25, 0.996078431372549, 0.996078431372549)
Color Number : 3
Key:  gppb
Color : #FFF7BC
Beggining : 0.375
End : 0.5
(1.0, 0.9686274509803922, 0.7372549019607844, 1.0)
(0.375, 1.0, 1.0)
Color Number : 4
Key:  gppb
Color : #F7FCB9
Beggining : 0.5
End : 0.625
(0.9686274509803922, 0.9882352941176471, 0.7254901960784313, 1.0)
(0.5, 0.9686274509803922, 0.9686274509803922)
Color Number : 5
Key:  gppb
Color : #8EA7C2
Beggining : 0.625
End : 0.75
(0.5568627450980392, 0.6549019607843137, 0.7607843137254902, 1.0)
(0.625, 0.5568627450980392, 0.5568627450980392)
Color Number : 6
Key:  gppb
Color : #1E5085
Beggining : 0.75
End : 0.875
(0.11764705882352941, 0.3137254901960784, 0.5215686274509804, 1.0)
(0.75, 0.11764705882352941, 0.11764705882352941)
Color Number : 7
Key:  gppb
Color : #3477BF
Beggining : 0.875
End : 1.0
(0.20392156862745098, 0.4666666666666667, 0.7490196078431373, 1.0)
(0.875, 0.20392156862745098, 0.20392156862745098)
Color Number : 8
Key:  gppb
Color : #0978ED
Beggining : 1.0
End : 1.125
(0.03529411764705882, 0.47058823529411764, 0.9294117647058824, 1.0)
Final Color
(1, 0.03529411764705882, 0.03529411764705882)
Tuple red
((0, 1.0, 1.0), (0.25, 0.996078431372549, 0.996078431372549), (0.375, 1.0, 1.0), (0.5, 0.9686274509803922, 0.9686274509803922), (0.625, 0.5568627450980392, 0.5568627450980392), (0.75, 0.11764705882352941, 0.11764705882352941), (0.875, 0.20392156862745098, 0.20392156862745098), (1, 0.03529411764705882, 0.03529411764705882))
<type 'tuple'>
((0, 1.0, 1.0), (0.25, 0.8901960784313725, 0.8901960784313725), (0.375, 0.9686274509803922, 0.9686274509803922), (0.5, 0.9882352941176471, 0.9882352941176471), (0.625, 0.6549019607843137, 0.6549019607843137), (0.75, 0.3137254901960784, 0.3137254901960784), (0.875, 0.4666666666666667, 0.4666666666666667), (1, 0.47058823529411764, 0.47058823529411764))
((0, 0.8980392156862745, 0.8980392156862745), (0.25, 0.5686274509803921, 0.5686274509803921), (0.375, 0.7372549019607844, 0.7372549019607844), (0.5, 0.7254901960784313, 0.7254901960784313), (0.625, 0.7607843137254902, 0.7607843137254902), (0.75, 0.5215686274509804, 0.5215686274509804), (0.875, 0.7490196078431373, 0.7490196078431373), (1, 0.9294117647058824, 0.9294117647058824))
Number of colors 11.0
Interval : 0.0909
Color Number : 1
Key:  gpp
Color : #FFF7BC
Beggining : 0.0909
End : 0.1818
(1.0, 0.9686274509803922, 0.7372549019607844, 1.0)
First Tuples
(0, 1.0, 1.0)
Color Number : 2
Key:  gpp
Color : #FEE391
Beggining : 0.1818
End : 0.2727
(0.996078431372549, 0.8901960784313725, 0.5686274509803921, 1.0)
(0.1818, 0.996078431372549, 0.996078431372549)
Color Number : 3
Key:  gpp
Color : #FFFFE5
Beggining : 0.2727
End : 0.3636
(1.0, 1.0, 0.8980392156862745, 1.0)
(0.2727, 1.0, 1.0)
Color Number : 4
Key:  gpp
Color : #F7FCB9
Beggining : 0.3636
End : 0.4545
(0.9686274509803922, 0.9882352941176471, 0.7254901960784313, 1.0)
(0.3636, 0.9686274509803922, 0.9686274509803922)
Color Number : 5
Key:  gpp
Color : #D9F0A3
Beggining : 0.4545
End : 0.5454
(0.8509803921568627, 0.9411764705882353, 0.6392156862745098, 1.0)
(0.45449999999999996, 0.8509803921568627, 0.8509803921568627)
Color Number : 6
Key:  gpp
Color : #ADDD8E
Beggining : 0.5454
End : 0.6363
(0.6784313725490196, 0.8666666666666667, 0.5568627450980392, 1.0)
(0.5454, 0.6784313725490196, 0.6784313725490196)
Color Number : 7
Key:  gpp
Color : #41AB5D
Beggining : 0.6363
End : 0.7272
(0.2549019607843137, 0.6705882352941176, 0.36470588235294116, 1.0)
(0.6363, 0.2549019607843137, 0.2549019607843137)
Color Number : 8
Key:  gpp
Color : #238B45
Beggining : 0.7272
End : 0.8181
(0.13725490196078433, 0.5450980392156862, 0.27058823529411763, 1.0)
(0.7272, 0.13725490196078433, 0.13725490196078433)
Color Number : 9
Key:  gpp
Color : #006D2C
Beggining : 0.8181
End : 0.909
(0.0, 0.42745098039215684, 0.17254901960784313, 1.0)
(0.8180999999999999, 0.0, 0.0)
Color Number : 10
Key:  gpp
Color : #00441B
Beggining : 0.909
End : 0.9999
(0.0, 0.26666666666666666, 0.10588235294117647, 1.0)
(0.9089999999999999, 0.0, 0.0)
Color Number : 11
Key:  gpp
Color : #006837
Beggining : 0.9999
End : 1.0908
(0.0, 0.40784313725490196, 0.21568627450980393, 1.0)
Final Color
(1, 0.0, 0.0)
Tuple red
((0, 1.0, 1.0), (0.1818, 0.996078431372549, 0.996078431372549), (0.2727, 1.0, 1.0), (0.3636, 0.9686274509803922, 0.9686274509803922), (0.45449999999999996, 0.8509803921568627, 0.8509803921568627), (0.5454, 0.6784313725490196, 0.6784313725490196), (0.6363, 0.2549019607843137, 0.2549019607843137), (0.7272, 0.13725490196078433, 0.13725490196078433), (0.8180999999999999, 0.0, 0.0), (0.9089999999999999, 0.0, 0.0), (1, 0.0, 0.0))
<type 'tuple'>
((0, 0.9686274509803922, 0.9686274509803922), (0.1818, 0.8901960784313725, 0.8901960784313725), (0.2727, 1.0, 1.0), (0.3636, 0.9882352941176471, 0.9882352941176471), (0.45449999999999996, 0.9411764705882353, 0.9411764705882353), (0.5454, 0.8666666666666667, 0.8666666666666667), (0.6363, 0.6705882352941176, 0.6705882352941176), (0.7272, 0.5450980392156862, 0.5450980392156862), (0.8180999999999999, 0.42745098039215684, 0.42745098039215684), (0.9089999999999999, 0.26666666666666666, 0.26666666666666666), (1, 0.40784313725490196, 0.40784313725490196))
((0, 0.7372549019607844, 0.7372549019607844), (0.1818, 0.5686274509803921, 0.5686274509803921), (0.2727, 0.8980392156862745, 0.8980392156862745), (0.3636, 0.7254901960784313, 0.7254901960784313), (0.45449999999999996, 0.6392156862745098, 0.6392156862745098), (0.5454, 0.5568627450980392, 0.5568627450980392), (0.6363, 0.36470588235294116, 0.36470588235294116), (0.7272, 0.27058823529411763, 0.27058823529411763), (0.8180999999999999, 0.17254901960784313, 0.17254901960784313), (0.9089999999999999, 0.10588235294117647, 0.10588235294117647), (1, 0.21568627450980393, 0.21568627450980393))
Testing /g/data1/rr9/sjj576/scripts/python/eMAST/csv/namingConvention.csv 
The right filePath was located in file /g/data1/rr9/sjj576/scripts/python/eMAST/csv/namingConvention.csv
/g/data1/rr9/sjj576/scripts/python/eMAST/csv/namingConvention.csv
Converting date
Converting date
Getting Input File
Input Path: /g/data/rr9/sjj576/Terrestrial_Ecosystems/Climate/eMAST/eMAST_R_Package/0_01deg/v1m1/mon/land/alph/e_01/1970_2012/eMAST_R_Package_mon_alph_v1m1_201201.nc
Getting Visualisation Output Directory
Converting date
Converting date
Getting file name
Output directory Structure: /g/data/rr9/sjj576/visualisations/Terrestrial_Ecosystems/Climate/eMAST/eMAST_R_Package/0_01deg/v1m1/mon//land/alph/e_01/1970_2012/
Output file name: eMAST_R_Package_mon_alph_v1m1_201201
<type 'netCDF4.Dataset'>
root group (NETCDF3_CLASSIC file format):
    Conventions: CF-1.4
    created_by: R, packages ncdf and raster (version 2.3-33)
    date: 2015-04-30 21:28:16
    dimensions: longitude, latitude
    variables: longitude, latitude, layer
    groups: 

eMAST_mon_alph_v1m1_1970_2012 is not in /g/data1/rr9/sjj576/scripts/python/eMAST/csv/netcdf_metadata_20150610.csv
The right metadata was located in file /g/data1/rr9/sjj576/scripts/python/eMAST/csv/metadata.csv
removing infinite
1.24907
0.246306
(3474, 4110)
[[-- -- -- ..., -- -- --]
 [-- -- -- ..., -- -- --]
 [-- -- -- ..., -- -- --]
 ..., 
 [-- -- -- ..., -- -- --]
 [-- -- -- ..., -- -- --]
 [-- -- -- ..., -- -- --]]
Getting Units for the chars

Converting date
Converting date
eMAST_mon_alph_v1m1_1970_2012 is not in /g/data1/rr9/sjj576/scripts/python/eMAST/csv/netcdf_metadata_20150610.csv
The right metadata was located in file /g/data1/rr9/sjj576/scripts/python/eMAST/csv/metadata.csv
['0', '0.2', '0.3', '0.4', '0.6', '0.8', '1', '1.2', '1.4', '1.6', '1.8', '2']
Printing Animations
Printing Animation
115.14|-41.38
======================================================================================
			Resource Usage on 2015-06-11 15:28:23.962002:
	JobId: 1004391.r-man2  
	Project: xa5 
	Exit Status: 0 (Linux Signal 0)
	Service Units: 0.00
	NCPUs Requested: 1				NCPUs Used: 1
							CPU Time Used: 00:00:09
	Memory Requested: 16gb 				Memory Used: 2gb
							Vmem Used: 2gb
	Walltime requested: 00:10:00 			Walltime Used: 00:00:13
	jobfs request: 100mb				jobfs used: 0b
======================================================================================
