======================================================================================
			Resource Usage on 2015-04-27 10:31:45.649392:
	JobId:  296877.r-man2  
	Project: xa5 
	Exit Status: 1 (Linux Signal 1)
	Service Units: 0.01
	NCPUs Requested: 16				NCPUs Used: 16
							CPU Time Used: 00:00:01
	Memory Requested: 124gb 			Memory Used: 0gb
							Vmem Used: 0gb
	Walltime requested: 01:00:00 			Walltime Used: 00:00:02
	jobfs request: 100mb				jobfs used: 0b
======================================================================================
