======================================================================================
			Resource Usage on 2015-04-24 15:54:41.392657:
	JobId:  258739.r-man2  
	Project: xa5 
	Exit Status: 1 (Linux Signal 1)
	Service Units: 0.10
	NCPUs Requested: 16				NCPUs Used: 16
							CPU Time Used: 00:00:20
	Memory Requested: 124gb 			Memory Used: 1gb
							Vmem Used: 1gb
	Walltime requested: 01:00:00 			Walltime Used: 00:00:22
	jobfs request: 100mb				jobfs used: 0b
======================================================================================
