======================================================================================
			Resource Usage on 2015-08-21 08:50:17.487729:
	JobId:  1979264.r-man2  
	Project: xa5 
	Exit Status: 271 (Linux Signal 15)
	Service Units: 160.27
	NCPUs Requested: 16				NCPUs Used: 16
							CPU Time Used: 04:16:05
	Memory Requested: 126gb 			Memory Used: 1gb
							Vmem Used: 1gb
	Walltime requested: 10:00:00 			Walltime Used: 10:01:00
	jobfs request: 100mb				jobfs used: 1mb
======================================================================================
