======================================================================================
			Resource Usage on 2015-08-20 01:53:27.688627:
	JobId:  1964202.r-man2  
	Project: xa5 
	Exit Status: 271 (Linux Signal 15)
	Service Units: 96.36
	NCPUs Requested: 16				NCPUs Used: 16
							CPU Time Used: 02:34:03
	Memory Requested: 126gb 			Memory Used: 1gb
							Vmem Used: 1gb
	Walltime requested: 06:00:00 			Walltime Used: 06:01:20
	jobfs request: 100mb				jobfs used: 1mb
======================================================================================
