python/2.7.3-matplotlib(16):ERROR:151: Module 'python/2.7.3-matplotlib' depends on one of the module(s) 'python/2.7.3'
python/2.7.3-matplotlib(16):ERROR:102: Tcl command execution failed: prereq python/2.7.3

pythonlib/netCDF4/1.0.4(24):ERROR:151: Module 'pythonlib/netCDF4/1.0.4' depends on one of the module(s) 'python/2.7.5'
pythonlib/netCDF4/1.0.4(24):ERROR:102: Tcl command execution failed: prereq python/2.7.3 python/2.7.5

  File "/g/data/rr9/IM_PhD/scripts/python/Full_monthlyAnomalies.py", line 34
    netCDFObj = Dataset(inputFile,'r')
            ^
SyntaxError: invalid syntax
