python/2.7.3-matplotlib(16):ERROR:151: Module 'python/2.7.3-matplotlib' depends on one of the module(s) 'python/2.7.3'
python/2.7.3-matplotlib(16):ERROR:102: Tcl command execution failed: prereq python/2.7.3

pythonlib/netCDF4/1.0.4(24):ERROR:151: Module 'pythonlib/netCDF4/1.0.4' depends on one of the module(s) 'python/2.7.5'
pythonlib/netCDF4/1.0.4(24):ERROR:102: Tcl command execution failed: prereq python/2.7.3 python/2.7.5

/apps/python/2.7.6/lib/python2.7/site-packages/numpy/lib/nanfunctions.py:737: RuntimeWarning: Degrees of freedom <= 0 for slice.
  warnings.warn("Degrees of freedom <= 0 for slice.", RuntimeWarning)
