python/2.7.3-matplotlib(16):ERROR:151: Module 'python/2.7.3-matplotlib' depends on one of the module(s) 'python/2.7.3'
python/2.7.3-matplotlib(16):ERROR:102: Tcl command execution failed: prereq python/2.7.3

pythonlib/netCDF4/1.0.4(24):ERROR:151: Module 'pythonlib/netCDF4/1.0.4' depends on one of the module(s) 'python/2.7.5'
pythonlib/netCDF4/1.0.4(24):ERROR:102: Tcl command execution failed: prereq python/2.7.3 python/2.7.5

Traceback (most recent call last):
  File "/g/data/rr9/IM_PhD/scripts/python/Full_monthlyAnomalies.py", line 203, in <module>
    process(productsInput,yearList,monthList)
  File "/g/data/rr9/IM_PhD/scripts/python/Full_monthlyAnomalies.py", line 29, in process
    fdata = makeMonthArray(month,productInput)
  File "/g/data/rr9/IM_PhD/scripts/python/Full_monthlyAnomalies.py", line 49, in makeMonthArray
    os.chdir('/g/data/rr9/Terrestrial_Ecosystems/Climate/eMAST/ANUClimate/0_01deg/v1m0_aus/mon/land/'+str(productInput[21:24])+'/e_01/1970_2012/')
OSError: [Errno 2] No such file or directory: '/g/data/rr9/Terrestrial_Ecosystems/Climate/eMAST/ANUClimate/0_01deg/v1m0_aus/mon/land/tma/e_01/1970_2012/'
