======================================================================================
			Resource Usage on 2015-07-27 13:35:33.704213:
	JobId:  1582939.r-man2  
	Project: xa5 
	Exit Status: 1 (Linux Signal 1)
	Service Units: 0.01
	NCPUs Requested: 16				NCPUs Used: 16
							CPU Time Used: 00:00:02
	Memory Requested: 126gb 			Memory Used: 0gb
							Vmem Used: 0gb
	Walltime requested: 03:00:00 			Walltime Used: 00:00:03
	jobfs request: 100mb				jobfs used: 0b
======================================================================================
