======================================================================================
			Resource Usage on 2015-05-19 22:59:23.049178:
	JobId:  659435.r-man2  
	Project: xa5 
	Exit Status: 0 (Linux Signal 0)
	Service Units: 0.21
	NCPUs Requested: 16				NCPUs Used: 16
							CPU Time Used: 00:00:26
	Memory Requested: 124gb 			Memory Used: 1gb
							Vmem Used: 1gb
	Walltime requested: 02:00:00 			Walltime Used: 00:00:47
	jobfs request: 100mb				jobfs used: 1mb
======================================================================================
