======================================================================================
			Resource Usage on 2015-05-12 18:28:28.737241:
	JobId:  542419.r-man2  
	Project: xa5 
	Exit Status: 1 (Linux Signal 1)
	Service Units: 0.18
	NCPUs Requested: 16				NCPUs Used: 16
							CPU Time Used: 00:00:23
	Memory Requested: 124gb 			Memory Used: 1gb
							Vmem Used: 1gb
	Walltime requested: 03:00:00 			Walltime Used: 00:00:41
	jobfs request: 100mb				jobfs used: 1mb
======================================================================================
