======================================================================================
			Resource Usage on 2015-05-12 22:14:36.711558:
	JobId:  548042.r-man2  
	Project: xa5 
	Exit Status: 1 (Linux Signal 1)
	Service Units: 0.16
	NCPUs Requested: 16				NCPUs Used: 16
							CPU Time Used: 00:00:23
	Memory Requested: 124gb 			Memory Used: 1gb
							Vmem Used: 1gb
	Walltime requested: 03:00:00 			Walltime Used: 00:00:36
	jobfs request: 100mb				jobfs used: 1mb
======================================================================================
